%YAML 1.1
%TAG !u! tag:unity3d.com,2011:
--- !u!114 &11400000
MonoBehaviour:
  m_ObjectHideFlags: 0
  m_PrefabParentObject: {fileID: 0}
  m_PrefabInternal: {fileID: 0}
  m_GameObject: {fileID: 0}
  m_Enabled: 1
  m_EditorHideFlags: 0
  m_Script: {fileID: 11500000, guid: dcf5436367c77be468950e23040ee608, type: 3}
  m_Name: ElevatorManagersCollection
  m_EditorClassIdentifier: 
  playerManager: {fileID: 1820183813487446, guid: 1300843ae545fac4b89c487ab48bb7a5,
    type: 2}
  sectorManagerTemplate: {fileID: 1449971297526048, guid: 0fb00a762e67e1f428318549acd11d1c,
    type: 2}
  managersInfo: {fileID: 11400000, guid: 2e48225c15564334c8103752cb769e5e, type: 2}
  managersAvatars: {fileID: 11400000, guid: ecd8c1e364207544bb69577c235002ce, type: 2}
