%YAML 1.1
%TAG !u! tag:unity3d.com,2011:
--- !u!114 &11400000
MonoBehaviour:
  m_ObjectHideFlags: 0
  m_PrefabParentObject: {fileID: 0}
  m_PrefabInternal: {fileID: 0}
  m_GameObject: {fileID: 0}
  m_Enabled: 1
  m_EditorHideFlags: 0
  m_Script: {fileID: 11500000, guid: 2b8b85d5a5adc9e4682f25c0357c0c09, type: 3}
  m_Name: AdditionalCosts
  m_EditorClassIdentifier: 
  initialMineshaftCost: 60
  mineshaftCostPercentageIncreaseWithDepth: 10
  initialManagerCost: 30
  managerCostPercentageIncreaseWithCount: 20
